{
  "version": "19.01.01",
  "steps": [{
    "stepId": "<UUID assigned by drupal to revision>",
    "instruction": "<written by author of step>",
    "videoId": "<copied by author of step from source, e.g. youtube video id from url>",
    "startSeconds": "<number determined by author of step>",
    "pauseSeconds": "<number determined by author of step>",
    "tags": ["selected/created by author of step"],
    "parentInstructionSets": [{
      "stepId": "<UUID assigned by drupal to revision selected by author>",
    }, {
      "stepId": "<UUID assigned by drupal to revision selected by author>",
    }],
    "childInstructionSets": [{
      "stepId": "<UUID assigned by drupal to revision selected by author>",
      "weightWithinSet": "<number determined by author of step>"
    }, {
      "stepId": "<UUID assigned by drupal to revision selected by author>",
      "weightWithinSet": "<number determined by author of step>",
    }]
  }, {
    "stepId": "abc123",
    "instruction": "Locate Composer-Setup.exe on your computer & double-click it",
    "videoId": "def456",
    "startSeconds": 123,
    "pauseSeconds": 132,
    "tags": ["Windows 10 Enterprise","Windows Explorer"],
    "parentInstructionSets": [{
      "stepId": "ghi789",
    }, {
      "stepId": "jkl123",
    }],
    "childInstructionSets": [{
      "stepId": "mno456",
      "weightWithinSet": 25
    }, {
      "stepId": "pqr789",
      "weightWithinSet": 30
    }]
  }]
}
