{
    "_links": {
        "self": {
            "href": "http:\/\/default\/node\/26?_format=hal_json"
        },
        "type": {
            "href": "http:\/\/drupal.org\/rest\/type\/node\/ladder"
        },
        "http:\/\/drupal.org\/rest\/relation\/node\/ladder\/revision_uid": [
            {
                "href": "http:\/\/default\/user\/1?_format=hal_json"
            }
        ],
        "http:\/\/drupal.org\/rest\/relation\/node\/ladder\/uid": [
            {
                "href": "http:\/\/default\/user\/1?_format=hal_json",
                "lang": "en"
            }
        ],
        "http:\/\/drupal.org\/rest\/relation\/node\/ladder\/field_steps_er": [
            {
                "href": "http:\/\/default\/node\/21?_format=hal_json"
            }
        ]
    },
    "nid": [
        {
            "value": 26
        }
    ],
    "uuid": [
        {
            "value": "2b7c4df8-18da-4f92-8efd-c077c366472c"
        }
    ],
    "vid": [
        {
            "value": 26
        }
    ],
    "langcode": [
        {
            "value": "en",
            "lang": "en"
        }
    ],
    "type": [
        {
            "target_id": "ladder"
        }
    ],
    "revision_timestamp": [
        {
            "value": "2019-01-17T12:00:13+00:00",
            "format": "Y-m-d\\TH:i:sP"
        }
    ],
    "_embedded": {
        "http:\/\/drupal.org\/rest\/relation\/node\/ladder\/revision_uid": [
            {
                "_links": {
                    "self": {
                        "href": "http:\/\/default\/user\/1?_format=hal_json"
                    },
                    "type": {
                        "href": "http:\/\/drupal.org\/rest\/type\/user\/user"
                    }
                },
                "uuid": [
                    {
                        "value": "8e22480e-d19f-42cf-b027-a8fb93e2ae76"
                    }
                ]
            }
        ],
        "http:\/\/drupal.org\/rest\/relation\/node\/ladder\/uid": [
            {
                "_links": {
                    "self": {
                        "href": "http:\/\/default\/user\/1?_format=hal_json"
                    },
                    "type": {
                        "href": "http:\/\/drupal.org\/rest\/type\/user\/user"
                    }
                },
                "uuid": [
                    {
                        "value": "8e22480e-d19f-42cf-b027-a8fb93e2ae76"
                    }
                ],
                "lang": "en"
            }
        ],
        "http:\/\/drupal.org\/rest\/relation\/node\/ladder\/field_steps_er": [
            {
                "_links": {
                    "self": {
                        "href": "http:\/\/default\/node\/21?_format=hal_json"
                    },
                    "type": {
                        "href": "http:\/\/drupal.org\/rest\/type\/node\/ladder"
                    }
                },
                "uuid": [
                    {
                        "value": "676b2adf-44c5-4409-9ec8-26e2cc8bd995"
                    }
                ]
            }
        ]
    },
    "status": [
        {
            "value": true,
            "lang": "en"
        }
    ],
    "title": [
        {
            "value": "Step 1.2",
            "lang": "en"
        }
    ],
    "created": [
        {
            "value": "2019-01-17T12:00:13+00:00",
            "lang": "en",
            "format": "Y-m-d\\TH:i:sP"
        }
    ],
    "changed": [
        {
            "value": "2019-01-18T05:48:45+00:00",
            "lang": "en",
            "format": "Y-m-d\\TH:i:sP"
        }
    ],
    "promote": [
        {
            "value": false,
            "lang": "en"
        }
    ],
    "sticky": [
        {
            "value": false,
            "lang": "en"
        }
    ],
    "default_langcode": [
        {
            "value": true,
            "lang": "en"
        }
    ],
    "revision_translation_affected": [
        {
            "value": true,
            "lang": "en"
        }
    ],
    "path": [
        {
            "alias": null,
            "pid": null,
            "langcode": "en",
            "lang": "en"
        }
    ],
    "field_is_ladder": [
        {
            "value": false
        }
    ]
}