{
    "_links": {
        "self": {
            "href": "http:\/\/default\/node\/36?_format=hal_json"
        },
        "type": {
            "href": "http:\/\/drupal.org\/rest\/type\/node\/proposed_steps"
        },
        "http:\/\/drupal.org\/rest\/relation\/node\/proposed_steps\/revision_uid": [
            {
                "href": "http:\/\/default\/user\/1?_format=hal_json"
            }
        ],
        "http:\/\/drupal.org\/rest\/relation\/node\/proposed_steps\/uid": [
            {
                "href": "http:\/\/default\/user\/1?_format=hal_json",
                "lang": "en"
            }
        ],
        "http:\/\/drupal.org\/rest\/relation\/node\/proposed_steps\/field_reference_step_er": [
            {
                "href": "http:\/\/default\/node\/6?_format=hal_json"
            }
        ]
    },
    "nid": [
        {
            "value": 36
        }
    ],
    "uuid": [
        {
            "value": "469a80c0-9552-467e-879f-7c92f0cfa644"
        }
    ],
    "vid": [
        {
            "value": 41
        }
    ],
    "langcode": [
        {
            "value": "en",
            "lang": "en"
        }
    ],
    "type": [
        {
            "target_id": "proposed_steps"
        }
    ],
    "revision_timestamp": [
        {
            "value": "2019-01-17T12:11:49+00:00",
            "format": "Y-m-d\\TH:i:sP"
        }
    ],
    "_embedded": {
        "http:\/\/drupal.org\/rest\/relation\/node\/proposed_steps\/revision_uid": [
            {
                "_links": {
                    "self": {
                        "href": "http:\/\/default\/user\/1?_format=hal_json"
                    },
                    "type": {
                        "href": "http:\/\/drupal.org\/rest\/type\/user\/user"
                    }
                },
                "uuid": [
                    {
                        "value": "8e22480e-d19f-42cf-b027-a8fb93e2ae76"
                    }
                ]
            }
        ],
        "http:\/\/drupal.org\/rest\/relation\/node\/proposed_steps\/uid": [
            {
                "_links": {
                    "self": {
                        "href": "http:\/\/default\/user\/1?_format=hal_json"
                    },
                    "type": {
                        "href": "http:\/\/drupal.org\/rest\/type\/user\/user"
                    }
                },
                "uuid": [
                    {
                        "value": "8e22480e-d19f-42cf-b027-a8fb93e2ae76"
                    }
                ],
                "lang": "en"
            }
        ],
        "http:\/\/drupal.org\/rest\/relation\/node\/proposed_steps\/field_reference_step_er": [
            {
                "_links": {
                    "self": {
                        "href": "http:\/\/default\/node\/6?_format=hal_json"
                    },
                    "type": {
                        "href": "http:\/\/drupal.org\/rest\/type\/node\/ladder"
                    }
                },
                "uuid": [
                    {
                        "value": "babda7e4-2ef5-44de-8b03-658c7142cc3d"
                    }
                ]
            }
        ]
    },
    "status": [
        {
            "value": true,
            "lang": "en"
        }
    ],
    "title": [
        {
            "value": "Proposed Step to 1.1",
            "lang": "en"
        }
    ],
    "created": [
        {
            "value": "2019-01-17T12:11:27+00:00",
            "lang": "en",
            "format": "Y-m-d\\TH:i:sP"
        }
    ],
    "changed": [
        {
            "value": "2019-01-17T12:11:49+00:00",
            "lang": "en",
            "format": "Y-m-d\\TH:i:sP"
        }
    ],
    "promote": [
        {
            "value": false,
            "lang": "en"
        }
    ],
    "sticky": [
        {
            "value": false,
            "lang": "en"
        }
    ],
    "default_langcode": [
        {
            "value": true,
            "lang": "en"
        }
    ],
    "revision_translation_affected": [
        {
            "value": true,
            "lang": "en"
        }
    ],
    "moderation_state": [
        {
            "value": "published",
            "lang": "en"
        }
    ],
    "path": [
        {
            "alias": null,
            "pid": null,
            "langcode": "en",
            "lang": "en"
        }
    ]
}