{
  "title": "fields on the Step entity",
  "type": "node bundle",
  "fields in bundle": [{
    "fieldlabel": "instruction",
    "type": "textfield",
    "notes": "replaces title"
  }, {
    "fieldlabel": "description",
    "type": "textarea"
  }, {
    "fieldlabel": "tags",
    "type": "entityreference",
    "notes": "multivalue; references Tags taxonomy vocabulary"
  }, {
    "fieldlabel": "substep",
    "type": "entityreference",
    "notes": "multivalue; references step content type"
  }, {
    "fieldlabel": "video",
    "type": "fieldset",
    "notes": "active set by default if not empty; if empty, make next non-empty set active",
    "fields in set": [{
      "fieldlabel": "video_id",
      "type": "combo field with label & url",
      "notes": "auto title from video_id via youtube api"
    }, {
      "fieldlabel": "video_start",
      "type": "hhmmss_field",
      "notes": "type manually or read from video timestamp"
    }, {
      "fieldlabel": "video_stop",
      "type": "hhmmss_field",
      "notes": "auto title from video_id via youtube api"
  }]}, {
    "fieldlabel": "code",
    "type": "fieldset",
    "fields in set": [{
      "fieldlabel": "usage",
      "type": "textarea",
      "notes": "display as sourcecode"
    }, {
      "fieldlabel": "example",
      "type": "textarea",
      "notes": "display as sourcecode"
    }, {
      "fieldlabel": "how to find official documentation",
      "type": "textfield/url_field"
  }]}, {
    "fieldlabel": "more references",
    "type": "fieldset",
    "fields in set": [{
      "fieldlabel": "official documentation specific to this step",
      "type": "'bookmarklet' generated from url"
  }]}, {
    "fieldlabel": "ladder",
    "type": "checkbox",
    "notes": "unchecked by default; map to core 'promote to front page' for easy control from content admin page"
}]}
